{
    "openapi": "3.0.3",
    "info": {
        "title": "NuclosBasicREST",
        "version": "1.0",
        "x-logo": {
            "url": ""
        }
    },
    "paths": {
        "/rest/serverstatus": {
            "summary": "Gets Serverstatus",
            "get": {
                "tags": ["Nuclos System"],
                "responses": {
                    "200": {
                        "content": {
                            "application/json": {
                                "schema": {
                                    "$ref": "#/components/schemas/Serverstatus"
                                }
                            }
                        },
                        "description": "",
                        "headers": {},
                        "links": {}
                    }
                }
            }
        },
        "/rest/version": {
			"get": {
				"tags": [
					"Nuclos System"
				],
				"summary": "Version of the nuclos server",
				"description": "Version of the nuclos server",
				"operationId": "version",
				"responses": {
					"200": {
						"description": "Returning string representation of current Nuclos version"
					}
				}
			}
		},
		"/rest/maintenance/logging/debugSQL": {
			"get": {
				"tags": [
					"Nuclos Maintenance"
				],
				"operationId": "getDebugSQL",
				"responses": {
					"default": {
						"content": {
							"application/json": {
								"schema": {
									"$ref": "#/components/schemas/DebugSql"
								}
							}
						},
						"description": ""
					},
					"401": {
						"description": "Unauthorized"
					}
				},
				"security": [
					{
						"cookieAuth": [
						]
					},
					{
						"bearerAuth": [
						]
					}
				]
			},
			"put": {
				"tags": [
					"Nuclos Maintenance"
				],
				"operationId": "setDebugSQL",
				"requestBody": {
					"content": {
						"application/json": {
							"schema": {
								"$ref": "#/components/schemas/DebugSql"
							}
						}
					}
				},
				"responses": {
					"default": {
						"content": {
							"application/json": {
								"schema": {
									"$ref": "#/components/schemas/DebugSql"
								}
							}
						},
						"description": ""
					},
					"401": {
						"description": "Unauthorized"
					}
				},
				"security": [
					{
						"cookieAuth": [
						]
					},
					{
						"bearerAuth": [
						]
					}
				]
			}
		},
		"/rest/login": {
			"get": {
				"tags": [
					"Nuclos Authentication"
				],
				"summary": "Authenticate against nuclos server",
				"description": "Returns JsonObject with SessionID and link for BO-Metalist.",
				"operationId": "login",
				"responses": {
					"200": {
						"content": {
							"application/json": {
								"schema": {
									"$ref": "#/components/schemas/LoginInfo"
								}
							}
						},
						"description": ""
					},
					"401": {
						"description": "Unauthorized"
					}
				},
				"security": [
					{
						"cookieAuth": [
						]
					},
					{
						"bearerAuth": [
						]
					}
				]
			},
			"post": {
				"tags": [
					"Nuclos Authentication"
				],
				"summary": "Authenticate again nuclos server",
				"description": "User-Login. Returns JsonObject with SessionID and link for BO-Metalist.",
				"operationId": "login_1",
				"requestBody": {
					"content": {
						"application/json": {
							"schema": {
								"$ref": "#/components/schemas/LoginParams"
							}
						}
					}
				},
				"responses": {
					"200": {
						"content": {
							"application/json": {
								"schema": {
									"$ref": "#/components/schemas/LoginInfo"
								}
							}
						},
						"description": ""
					}
				}
			},
			"delete": {
				"tags": [
					"Nuclos Authentication"
				],
				"summary": "User-Logout. Returns HTTP-Status 200, if successful",
				"description": "User-Logout. Returns HTTP-Status 200, if successful",
				"operationId": "logout",
				"responses": {
					"default": {
						"description": "default response"
					},
					"401": {
						"description": "Unauthorized"
					}
				},
				"security": [
					{
						"cookieAuth": [
						]
					},
					{
						"bearerAuth": [
						]
					}
				]
			}
		}
    },
    "components": {
        "securitySchemes": {},
        "schemas": {
            "Serverstatus": {
                "type": "object",
                "example": {
                    "ready": true
                },
                "properties": {
                    "ready": {
                        "type": "boolean",
                        "example": [
                            true,
                            false
                        ]
                    }
                },
                "required": ["ready"]
            },
			"DebugSql": {
				"type": "object",
				"properties": {
					"debugSQL": {
						"type": "string",
						"xml": {
							"attribute": true
						}
					},
					"minExecTime": {
						"type": "string",
						"xml": {
							"attribute": true
						}
					}
				}
			},
			"AllowedActions": {
				"type": "object",
				"properties": {
					"SharePreferences": {
						"type": "boolean",
						"xml": {
							"attribute": true
						}
					},
					"ConfigureCharts": {
						"type": "boolean",
						"xml": {
							"attribute": true
						}
					},
					"ConfigurePerspectives": {
						"type": "boolean",
						"xml": {
							"attribute": true
						}
					},
					"PrintSearchResultList": {
						"type": "boolean",
						"xml": {
							"attribute": true
						}
					},
					"WorkspaceCustomizeEntityAndSubFormColumn": {
						"type": "boolean",
						"xml": {
							"attribute": true
						}
					},
					"CollectiveProcessing": {
						"type": "boolean",
						"xml": {
							"name": "collectiveProcessing",
							"attribute": true
						}
					},
					"ExecuteReports": {
						"type": "boolean",
						"xml": {
							"name": "executeReports",
							"attribute": true
						}
					},
					"ConfigureDashboards": {
						"type": "boolean",
						"xml": {
							"name": "configureDashboards",
							"attribute": true
						}
					},
                    "BulkEdit": {
                      "type": "boolean",
                      "xml": {
                        "name": "bulkEdit",
                        "attribute": true
                      }
                    }
				}
			},
			"LoginInfo": {
				"required": [
					"allowedActions",
					"links"
				],
				"type": "object",
				"properties": {
					"allowedActions": {
						"$ref": "#/components/schemas/AllowedActions"
					},
					"links": {
						"$ref": "#/components/schemas/LoginInfoLinks"
					},
					"mandator": {
						"$ref": "#/components/schemas/Mandator"
					},
					"mandators": {
						"type": "array",
						"items": {
							"$ref": "#/components/schemas/Mandator"
						}
					},
					"sessionId": {
						"type": "string",
						"xml": {
							"attribute": true
						}
					},
					"username": {
						"type": "string",
						"xml": {
							"attribute": true
						}
					},
					"locale": {
						"type": "string",
						"xml": {
							"attribute": true
						}
					},
					"datalanguage": {
						"type": "string",
						"xml": {
							"attribute": true
						}
					},
					"ldapActive": {
						"type": "boolean",
						"xml": {
							"attribute": true
						}
					},
					"ssoActive": {
						"type": "boolean",
						"xml": {
							"attribute": true
						}
					},
					"ssoLogoutUri": {
						"type": "string",
						"xml": {
							"attribute": true
						}
					},
					"maintenanceMode": {
						"type": "boolean",
						"xml": {
							"attribute": true
						}
					},
					"superUser": {
						"type": "boolean",
						"xml": {
							"attribute": true
						}
					},
					"showRichClientCompleted": {
						"type": "boolean",
						"xml": {
							"attribute": true
						}
					},
					"clientIp": {
						"type": "string",
						"xml": {
							"attribute": true
						}
					},
					"initialEntity": {
						"type": "string",
						"xml": {
							"attribute": true
						}
					}
				}
			},
			"LoginInfoLinks": {
				"required": [
					"boMetas",
					"menu",
					"search",
					"tasks"
				],
				"type": "object",
				"properties": {
					"boMetas": {
						"$ref": "#/components/schemas/RestLink"
					},
					"menu": {
						"$ref": "#/components/schemas/RestLink"
					},
					"tasks": {
						"$ref": "#/components/schemas/RestLink"
					},
					"search": {
						"$ref": "#/components/schemas/RestLink"
					}
				}
			},
			"Mandator": {
				"required": [
					"links"
				],
				"type": "object",
				"properties": {
					"links": {
						"$ref": "#/components/schemas/MandatorLinks"
					},
					"mandatorId": {
						"type": "string",
						"xml": {
							"attribute": true
						}
					},
					"mandatorLevelId": {
						"type": "string",
						"xml": {
							"attribute": true
						}
					},
					"name": {
						"type": "string",
						"xml": {
							"attribute": true
						}
					},
					"path": {
						"type": "string",
						"xml": {
							"attribute": true
						}
					},
					"color": {
						"type": "string",
						"xml": {
							"attribute": true
						}
					}
				}
			},
			"MandatorLinks": {
				"required": [
					"chooseMandator"
				],
				"type": "object",
				"properties": {
					"chooseMandator": {
						"$ref": "#/components/schemas/RestLink"
					}
				}
			},
			"LoginParams": {
				"type": "object",
				"properties": {
					"username": {
						"type": "string",
						"xml": {
							"attribute": true
						}
					},
					"password": {
						"type": "string",
						"xml": {
							"attribute": true
						}
					},
					"datalanguage": {
						"type": "string",
						"xml": {
							"attribute": true
						}
					},
					"locale": {
						"type": "string",
						"xml": {
							"attribute": true
						}
					},
					"autologin": {
						"type": "boolean",
						"xml": {
							"attribute": true
						}
					},
					"loginUri": {
						"type": "string",
						"xml": {
							"attribute": true
						}
					},
					"serverUri": {
						"type": "string",
						"xml": {
							"attribute": true
						}
					}
				}
			},
			"DataLanguage": {
				"type": "object",
				"properties": {
					"datalanguage": {
						"type": "string",
						"xml": {
							"attribute": true
						}
					},
					"datalanguageLabel": {
						"type": "string",
						"xml": {
							"attribute": true
						}
					},
					"primary": {
						"type": "boolean",
						"xml": {
							"attribute": true
						}
					}
				}
			},
			"LocaleInfo": {
				"type": "object",
				"properties": {
					"locale": {
						"type": "string",
						"xml": {
							"attribute": true
						}
					}
				}
			},
			"RestLink": {
				"required": [
					"methods"
				],
				"type": "object",
				"properties": {
					"methods": {
						"type": "array",
						"items": {
							"type": "string"
						}
					},
					"href": {
						"type": "string",
						"xml": {
							"attribute": true
						}
					}
				}
			}
        },
        "headers": {},
        "responses": {},
        "parameters": {}
    },
    "tags": [],
    "servers": [
        {
            "url": "https://nuclos.de",
            "description": "",
            "variables": {}
        }
    ],
    "security": []
}
