{
  "userdefinedName":true,
  "columns":[
    {
      "name":"article",
      "boAttrId":"uid{Khi5.Aj8AVwwBaIZaBUIaXlzJ}",
      "width":120,
      "position":0
    },
    {
      "name":"price",
      "boAttrId":"uid{Khi5.9dTVY27oKuuGT67c9Lm2}",
      "width":80,
      "position":1
    },
    {
      "name":"quantity",
      "boAttrId":"uid{Khi5.1sJUnkeLZacxxUIoePiC}",
      "width":80,
      "position":2
    }
  ]
}