{
  "userdefinedName":true,
  "columns":[
    {
      "name":"city",
      "boAttrId":"uid{Khi5.TxxgpNK5vZwJGKpjJZcT}",
      "width":163,
      "position":0
    },
    {
      "name":"zipCode",
      "boAttrId":"uid{Khi5.QkyqPeTubw5X6o7bBdaC}",
      "width":70,
      "position":1
    },
    {
      "name":"street",
      "boAttrId":"uid{Khi5.bijaUzVGyiccbBO4ZZpg}",
      "width":275,
      "position":2
    }
  ]
}