{
  "userdefinedName":true,
  "columns":[
    {
      "name":"Number",
      "boAttrId":"uid{Khi5.YxQwf-vzZDfB4vDYONRoDOkPtZ}",
      "width":213,
      "position":0,
      "sort":{
        "direction":"asc",
        "prio":1
      },
      "selected":true
    },
    {
      "name":"Type",
      "boAttrId":"uid{Khi5.YxQwf-Bzwp3Ac2E4O0S2NeTSGv}",
      "width":97,
      "position":1,
      "selected":true
    },
    {
      "boAttrId":"uid{Khi5.YxQwf-S6jVoonyaxsPkwuWhxjV}",
      "position":4,
      "sort":{ },
      "selected":true
    }
  ],
  "sideviewMenuWidth":200
}