{
  "userdefinedName":true,
  "columns":[
    {
      "name":"customerNumber",
      "boAttrId":"uid{Khi5.yRrNxQuuEubF3geNfE0A}",
      "width":80,
      "position":0,
      "sort":{
        "direction":"desc",
        "prio":1
      }
    },
    {
      "name":"name",
      "boAttrId":"uid{Khi5.Tsq9sMXXXuAAVFnKLKNr}",
      "width":159,
      "position":1
    },
    {
      "name":"birthday",
      "boAttrId":"uid{Khi5.PI0aFHtZRMXLtFNVPFT0}",
      "width":80,
      "position":2
    },
    {
      "name":"active",
      "boAttrId":"uid{Khi5.pGwFv9qaL7PCAwdMIWti}",
      "width":40,
      "position":3
    },
    {
      "name":"discount",
      "boAttrId":"uid{Khi5.imCuENAlyLJTKzq5Tkgs}",
      "width":80,
      "position":4
    }
  ]
}