{
  "userdefinedName":true,
  "columns":[
    {
      "boAttrId":"uid{Khi5.dYdqa}",
      "boAttrName":"role",
      "name":"User group",
      "description":"User group name",
      "type":"String",
      "readonly":false,
      "unique":true,
      "nullable":false,
      "hidden":false,
      "localized":false,
      "reference":true,
      "calculated":false,
      "order":"",
      "referencingBoMetaId":"uid{5E8q.exNI}",
      "referenceWithUid":true,
      "sort":{ },
      "marked":false,
      "selected":true,
      "position":0
    }
  ],
  "sideviewMenuWidth":200
}