{
  "userdefinedName":true,
  "columns":[
    {
      "name":"umsatz",
      "boAttrId":"uid{Khi5.NdVZLCSw4JyfkbRVPgc2}",
      "width":70,
      "position":0
    },
    {
      "name":"gewinn",
      "boAttrId":"uid{Khi5.XhsaNwyzbkdxy6NHNfnL}",
      "width":80,
      "position":1
    },
    {
      "name":"umsatzjahr",
      "boAttrId":"uid{Khi5.PXyJmvwx4vDRlMva2BfI}",
      "width":80,
      "position":2
    }
  ]
}