{
  "userdefinedName":true,
  "columns":[
    {
      "boAttrId":"uid{Khi5.Aj8AVwwBaIZaBUIaXlzJ}",
      "name":"Article",
      "width":173,
      "position":0,
      "selected":true,
      "nullable":false,
      "marked":false
    },
    {
      "boAttrId":"uid{Khi5.9dTVY27oKuuGT67c9Lm2}",
      "name":"Price",
      "width":83,
      "position":1,
      "selected":true,
      "nullable":false,
      "marked":false
    },
    {
      "boAttrId":"uid{Khi5.1sJUnkeLZacxxUIoePiC}",
      "name":"Quantity",
      "width":68,
      "position":2,
      "selected":true,
      "nullable":false,
      "marked":false
    },
    {
      "boAttrId":"uid{Khi5.pZW1i25UoMfCWzPaSv1t}",
      "name":"Category",
      "width":107,
      "position":3,
      "selected":true,
      "nullable":true,
      "marked":false
    },
    {
      "boAttrId":"uid{Khi5.oDD6Lv0rFsdPgzZc8eMz}",
      "boAttrName":"categorytextual",
      "name":"Category textual",
      "description":"Category textual",
      "type":"String",
      "readonly":false,
      "unique":false,
      "nullable":true,
      "hidden":false,
      "reference":false,
      "calculated":false,
      "order":"12",
      "scale":255,
      "sort":{ },
      "marked":true,
      "selected":true,
      "position":4
    },
    {
      "boAttrId":"uid{Khi5.ZEKodh3wF1l2uNUGYxGd}",
      "name":"Name",
      "width":200,
      "position":5,
      "selected":true,
      "nullable":true,
      "marked":false
    },
    {
      "boAttrId":"uid{Khi5.3iHXlDCb4tSnFuvYdOg2}",
      "name":"versandt",
      "width":66,
      "position":6,
      "selected":true,
      "nullable":false,
      "marked":false
    },
    {
      "boAttrId":"uid{Khi5.WPYYgEC0psVEY9d7C78Z1}",
      "name":"Erstellt am",
      "width":200,
      "position":7,
      "selected":true,
      "nullable":true,
      "marked":false
    }
  ],
  "sideviewMenuWidth":200
}