{
	"rulesDirectory": ["node_modules/codelyzer"],
	"rules": {
		"class-name": true,
		"comment-format": [
			true,
			"check-space"
		],
		"curly": true,
		"eofline": true,
		"forin": true,
		"deprecation": {
			"severity": "warning"
		},
		"indent": [
			true,
			"tabs"
		],
		"label-position": true,
		"max-line-length": [
			true,
			140
		],
		"member-access": false,
		"member-ordering": [
			true,
			{
				"order": "statics-first"
			}
		],
		"no-arg": true,
		"no-bitwise": true,
		"no-console": [
			true,
			"log",
			"debug",
			"info",
			"error",
			"group",
			"groupEnd",
			"time",
			"timeEnd",
			"trace"
		],
		"no-construct": true,
		"no-debugger": true,
		"no-duplicate-variable": true,
		"no-empty": false,
		"no-eval": true,
		"no-inferrable-types": true,
		"no-shadowed-variable": true,
		"no-string-literal": false,
		"no-switch-case-fall-through": true,
		"no-trailing-whitespace": true,
		"no-unused-expression": true,
		"no-var-keyword": true,
		"object-literal-sort-keys": false,
		"one-line": [true, "check-open-brace", "check-catch", "check-else", "check-whitespace"],
		"quotemark": [true, "single"],
		"radix": true,
		"semicolon": [true],
		"triple-equals": [true, "allow-null-check"],
		"typedef-whitespace": [
			true,
			{
				"call-signature": "nospace",
				"index-signature": "nospace",
				"parameter": "nospace",
				"property-declaration": "nospace",
				"variable-declaration": "nospace"
			}
		],
		"variable-name": false,
		"whitespace": [
			true,
			"check-branch",
			"check-decl",
			"check-operator",
			"check-separator",
			"check-type",
			"check-module"
		],
		"directive-selector": [
			true,
			"attribute",
			[
				"nuc"
			],
			"camelCase"
		],
		"component-selector": [
			true,
			"element",
			[
				"nuc"
			],
			"kebab-case"
		],
		"no-inputs-metadata-property": true,
		"no-outputs-metadata-property": true,
		"no-host-metadata-property": true,
		"no-input-rename": true,
		"no-output-rename": true,
		"use-pipe-transform-interface": true,
		"component-class-suffix": true,
		"directive-class-suffix": true
	}
}
