<?xml version="1.0" encoding="UTF-8" standalone="yes"?>
<soapProject>
    <created>2020-09-11T13:23:23.445Z</created>
    <description>https://www.tutorialspoint.com/wsdl/wsdl_example.htm</description>
    <id>ASWIFH</id>
    <name>hello</name>
    <updated>2020-09-11T13:23:23.445Z</updated>
</soapProject>
